%YAML 1.1
%TAG !u! tag:unity3d.com,2011:
--- !u!1001 &8770754157292991333
PrefabInstance:
  m_ObjectHideFlags: 0
  serializedVersion: 2
  m_Modification:
    m_TransformParent: {fileID: 0}
    m_Modifications:
    - target: {fileID: 5804428639237485436, guid: d189a613d1f3a4b4591a06b82b434f02,
        type: 3}
      propertyPath: m_LocalPosition.x
      value: 0
      objectReference: {fileID: 0}
    - target: {fileID: 5804428639237485436, guid: d189a613d1f3a4b4591a06b82b434f02,
        type: 3}
      propertyPath: m_LocalPosition.y
      value: 0
      objectReference: {fileID: 0}
    - target: {fileID: 5804428639237485436, guid: d189a613d1f3a4b4591a06b82b434f02,
        type: 3}
      propertyPath: m_LocalPosition.z
      value: 0
      objectReference: {fileID: 0}
    - target: {fileID: 5804428639237485436, guid: d189a613d1f3a4b4591a06b82b434f02,
        type: 3}
      propertyPath: m_LocalRotation.x
      value: -0
      objectReference: {fileID: 0}
    - target: {fileID: 5804428639237485436, guid: d189a613d1f3a4b4591a06b82b434f02,
        type: 3}
      propertyPath: m_LocalRotation.y
      value: -0
      objectReference: {fileID: 0}
    - target: {fileID: 5804428639237485436, guid: d189a613d1f3a4b4591a06b82b434f02,
        type: 3}
      propertyPath: m_LocalRotation.z
      value: -0
      objectReference: {fileID: 0}
    - target: {fileID: 5804428639237485436, guid: d189a613d1f3a4b4591a06b82b434f02,
        type: 3}
      propertyPath: m_LocalRotation.w
      value: 1
      objectReference: {fileID: 0}
    - target: {fileID: 5804428639237485436, guid: d189a613d1f3a4b4591a06b82b434f02,
        type: 3}
      propertyPath: m_RootOrder
      value: 0
      objectReference: {fileID: 0}
    - target: {fileID: 5804428639237485436, guid: d189a613d1f3a4b4591a06b82b434f02,
        type: 3}
      propertyPath: m_LocalEulerAnglesHint.x
      value: 0
      objectReference: {fileID: 0}
    - target: {fileID: 5804428639237485436, guid: d189a613d1f3a4b4591a06b82b434f02,
        type: 3}
      propertyPath: m_LocalEulerAnglesHint.y
      value: 0
      objectReference: {fileID: 0}
    - target: {fileID: 5804428639237485436, guid: d189a613d1f3a4b4591a06b82b434f02,
        type: 3}
      propertyPath: m_LocalEulerAnglesHint.z
      value: 0
      objectReference: {fileID: 0}
    - target: {fileID: 5804428639237485436, guid: d189a613d1f3a4b4591a06b82b434f02,
        type: 3}
      propertyPath: m_AnchoredPosition.x
      value: -0
      objectReference: {fileID: 0}
    - target: {fileID: 5804428639237485436, guid: d189a613d1f3a4b4591a06b82b434f02,
        type: 3}
      propertyPath: m_AnchoredPosition.y
      value: -3
      objectReference: {fileID: 0}
    - target: {fileID: 5804428639237485436, guid: d189a613d1f3a4b4591a06b82b434f02,
        type: 3}
      propertyPath: m_SizeDelta.x
      value: 484.99
      objectReference: {fileID: 0}
    - target: {fileID: 5804428639237485436, guid: d189a613d1f3a4b4591a06b82b434f02,
        type: 3}
      propertyPath: m_SizeDelta.y
      value: 80.1
      objectReference: {fileID: 0}
    - target: {fileID: 5804428639237485436, guid: d189a613d1f3a4b4591a06b82b434f02,
        type: 3}
      propertyPath: m_AnchorMin.x
      value: 0.5
      objectReference: {fileID: 0}
    - target: {fileID: 5804428639237485436, guid: d189a613d1f3a4b4591a06b82b434f02,
        type: 3}
      propertyPath: m_AnchorMin.y
      value: 0.5
      objectReference: {fileID: 0}
    - target: {fileID: 5804428639237485436, guid: d189a613d1f3a4b4591a06b82b434f02,
        type: 3}
      propertyPath: m_AnchorMax.x
      value: 0.5
      objectReference: {fileID: 0}
    - target: {fileID: 5804428639237485436, guid: d189a613d1f3a4b4591a06b82b434f02,
        type: 3}
      propertyPath: m_AnchorMax.y
      value: 0.5
      objectReference: {fileID: 0}
    - target: {fileID: 5804428639237485436, guid: d189a613d1f3a4b4591a06b82b434f02,
        type: 3}
      propertyPath: m_Pivot.x
      value: 0.5
      objectReference: {fileID: 0}
    - target: {fileID: 5804428639237485436, guid: d189a613d1f3a4b4591a06b82b434f02,
        type: 3}
      propertyPath: m_Pivot.y
      value: 0.5
      objectReference: {fileID: 0}
    - target: {fileID: 5804428639237485437, guid: d189a613d1f3a4b4591a06b82b434f02,
        type: 3}
      propertyPath: m_Name
      value: BarUI_H_Partial
      objectReference: {fileID: 0}
    - target: {fileID: 5804428639297432216, guid: d189a613d1f3a4b4591a06b82b434f02,
        type: 3}
      propertyPath: m_Sprite
      value: 
      objectReference: {fileID: 21300000, guid: c1f56148d5d1f79439e597106cea70ac,
        type: 3}
    - target: {fileID: 5804428639297432216, guid: d189a613d1f3a4b4591a06b82b434f02,
        type: 3}
      propertyPath: m_Color.r
      value: 1
      objectReference: {fileID: 0}
    - target: {fileID: 5804428639297432216, guid: d189a613d1f3a4b4591a06b82b434f02,
        type: 3}
      propertyPath: m_Color.g
      value: 1
      objectReference: {fileID: 0}
    - target: {fileID: 5804428639297432216, guid: d189a613d1f3a4b4591a06b82b434f02,
        type: 3}
      propertyPath: m_Color.b
      value: 1
      objectReference: {fileID: 0}
    - target: {fileID: 5804428639297432216, guid: d189a613d1f3a4b4591a06b82b434f02,
        type: 3}
      propertyPath: m_PreserveAspect
      value: 0
      objectReference: {fileID: 0}
    - target: {fileID: 5804428639297432216, guid: d189a613d1f3a4b4591a06b82b434f02,
        type: 3}
      propertyPath: m_FillAmount
      value: 1
      objectReference: {fileID: 0}
    - target: {fileID: 5804428639297432217, guid: d189a613d1f3a4b4591a06b82b434f02,
        type: 3}
      propertyPath: m_AnchoredPosition.x
      value: 0.5
      objectReference: {fileID: 0}
    - target: {fileID: 5804428639297432217, guid: d189a613d1f3a4b4591a06b82b434f02,
        type: 3}
      propertyPath: m_SizeDelta.x
      value: -1
      objectReference: {fileID: 0}
    - target: {fileID: 5804428639297432217, guid: d189a613d1f3a4b4591a06b82b434f02,
        type: 3}
      propertyPath: m_AnchoredPosition.y
      value: -1
      objectReference: {fileID: 0}
    - target: {fileID: 5804428639297432217, guid: d189a613d1f3a4b4591a06b82b434f02,
        type: 3}
      propertyPath: m_SizeDelta.y
      value: -4
      objectReference: {fileID: 0}
    - target: {fileID: 5804428640000336451, guid: d189a613d1f3a4b4591a06b82b434f02,
        type: 3}
      propertyPath: m_Sprite
      value: 
      objectReference: {fileID: 21300000, guid: e33901b4e380a9c49b115cddb8976895,
        type: 3}
    - target: {fileID: 5804428640000336451, guid: d189a613d1f3a4b4591a06b82b434f02,
        type: 3}
      propertyPath: m_PreserveAspect
      value: 0
      objectReference: {fileID: 0}
    - target: {fileID: 5804428640000336476, guid: d189a613d1f3a4b4591a06b82b434f02,
        type: 3}
      propertyPath: m_SizeDelta.y
      value: 40
      objectReference: {fileID: 0}
    - target: {fileID: 5804428640000336476, guid: d189a613d1f3a4b4591a06b82b434f02,
        type: 3}
      propertyPath: m_SizeDelta.x
      value: 256
      objectReference: {fileID: 0}
    - target: {fileID: 5804428640200567428, guid: d189a613d1f3a4b4591a06b82b434f02,
        type: 3}
      propertyPath: m_EffectColor.r
      value: 0
      objectReference: {fileID: 0}
    - target: {fileID: 5804428640200567428, guid: d189a613d1f3a4b4591a06b82b434f02,
        type: 3}
      propertyPath: m_EffectColor.g
      value: 0
      objectReference: {fileID: 0}
    - target: {fileID: 5804428640200567428, guid: d189a613d1f3a4b4591a06b82b434f02,
        type: 3}
      propertyPath: m_EffectColor.b
      value: 0
      objectReference: {fileID: 0}
    - target: {fileID: 5804428640200567428, guid: d189a613d1f3a4b4591a06b82b434f02,
        type: 3}
      propertyPath: m_EffectColor.a
      value: 0.72156864
      objectReference: {fileID: 0}
    - target: {fileID: 5804428640200567428, guid: d189a613d1f3a4b4591a06b82b434f02,
        type: 3}
      propertyPath: m_UseGraphicAlpha
      value: 1
      objectReference: {fileID: 0}
    - target: {fileID: 5804428640200567435, guid: d189a613d1f3a4b4591a06b82b434f02,
        type: 3}
      propertyPath: m_FontData.m_Font
      value: 
      objectReference: {fileID: 12800000, guid: bd464f0932c0f5a4cadd9da7e372b464,
        type: 3}
    m_RemovedComponents: []
  m_SourcePrefab: {fileID: 100100000, guid: d189a613d1f3a4b4591a06b82b434f02, type: 3}
